{
  "version": 2,
  "exports": {
    "WebApi.EmailService/1.0.0": {
      "type": "project",
      "framework": ".NETFramework,Version=v4.5.2",
      "compile": {
        "bin/Debug/WebApi.EmailService.exe": {}
      },
      "runtime": {
        "../packages/Autofac.4.0.0-rc3-316/lib/net451/Autofac.dll": {},
        "../packages/NServiceBus.5.2.14/lib/net45/NServiceBus.Core.dll": {},
        "bin/Debug/WebApi.EmailService.exe": {}
      },
      "contentFiles": {
        "bin/Debug/WebApi.EmailService.pdb": {
          "buildAction": "None",
          "codeLanguage": "any",
          "copyToOutput": true
        }
      }
    },
    "WebApi.Model/1.0.0": {
      "type": "project",
      "framework": ".NETFramework,Version=v4.5.2",
      "compile": {
        "bin/Debug/WebApi.Entity.dll": {}
      },
      "runtime": {
        "../packages/NServiceBus.5.2.14/lib/net45/NServiceBus.Core.dll": {},
        "bin/Debug/WebApi.Entity.dll": {}
      },
      "contentFiles": {
        "bin/Debug/WebApi.Entity.pdb": {
          "buildAction": "None",
          "codeLanguage": "any",
          "copyToOutput": true
        }
      }
    },
    "WebApi.Service/1.0.0": {
      "type": "project",
      "framework": ".NETFramework,Version=v4.5.2",
      "compile": {
        "bin/Debug/WebApi.Service.dll": {}
      },
      "runtime": {
        "../packages/NServiceBus.5.2.14/lib/net45/NServiceBus.Core.dll": {},
        "bin/Debug/WebApi.Service.dll": {}
      },
      "contentFiles": {
        "bin/Debug/WebApi.Service.pdb": {
          "buildAction": "None",
          "codeLanguage": "any",
          "copyToOutput": true
        }
      }
    },
    "WebApi.DAL/1.0.0": {
      "type": "project",
      "framework": ".NETFramework,Version=v4.5.2",
      "compile": {
        "bin/Debug/WebApi.DAL.dll": {}
      },
      "runtime": {
        "../packages/FluentNHibernate.2.0.3.0/lib/net40/FluentNHibernate.dll": {},
        "../packages/Iesi.Collections.4.0.0.4000/lib/net40/Iesi.Collections.dll": {},
        "../packages/NHibernate.4.0.0.4000/lib/net40/NHibernate.dll": {},
        "bin/Debug/WebApi.DAL.dll": {}
      },
      "contentFiles": {
        "bin/Debug/WebApi.DAL.pdb": {
          "buildAction": "None",
          "codeLanguage": "any",
          "copyToOutput": true
        }
      }
    }
  }
}